0 0
1 9
2 13
3 17
4 21
5 24
6 26
7 29
8 31
9 34
10 36
11 38
12 40
13 42
14 44
15 46
16 48
17 50
18 51
19 53
20 55
21 57
22 58
23 60
24 61
25 63
26 64
27 66
28 67
29 69
30 70
31 72
32 73
33 74
34 76
35 77
36 78
37 80
38 81
39 82
40 83
41 85
42 86
43 87
44 88
45 90
46 91
47 92
48 93
49 94
50 95
51 97
52 98
53 99
54 100
55 101
56 102
57 103
58 104
59 105
60 107
61 108
62 109
63 110
64 111
65 112
66 113
67 114
68 115
69 116
70 117
71 118
72 119
73 120
74 121
75 122
76 123
77 124
78 125
79 126
80 127
81 128
82 129
83 130
84 130
85 131
86 132
87 133
88 134
89 135
90 136
91 137
92 138
93 139
94 140
95 141
96 141
97 142
98 143
99 144
100 145
101 146
102 147
103 148
104 148
105 149
106 150
107 151
108 152
109 153
110 153
111 154
112 155
113 156
114 157
115 158
116 158
117 159
118 160
119 161
120 162
121 163
122 163
123 164
124 165
125 166
126 167
127 167
128 168
129 169
130 170
131 170
132 171
133 172
134 173
135 174
136 174
137 175
138 176
139 177
140 177
141 178
142 179
143 180
144 180
145 181
146 182
147 183
148 183
149 184
150 185
151 186
152 186
153 187
154 188
155 189
156 189
157 190
158 191
159 192
160 192
161 193
162 194
163 194
164 195
165 196
166 197
167 197
168 198
169 199
170 199
171 200
172 201
173 202
174 202
175 203
176 204
177 204
178 205
179 206
180 206
181 207
182 208
183 208
184 209
185 210
186 211
187 211
188 212
189 213
190 213
191 214
