55 101
56 102
57 103
58 104
59 105
60 107
61 108
62 109
63 110
64 111
65 112
66 113
67 114
68 115
69 116
70 117
71 118
72 119
73 120
74 121
75 122
76 123
77 124
78 125
79 126
80 127
81 128
82 129
83 130
84 130
85 131
86 132
87 133
88 134
89 135
90 136
91 137
92 138
93 139
94 140
95 141
96 141
97 142
98 143
99 144
100 145
101 146
102 147
103 148
104 148
105 149
106 150
107 151
108 152
109 153
110 153
111 154
112 155
113 156
114 157
115 158
116 158
117 159
118 160
119 161
120 162
121 163
122 163
123 164
124 165
125 166
126 167
127 167
128 168
129 169
130 170
131 170
132 171
133 172
134 173
135 174
136 174
137 175
138 176
139 177
140 177
141 178
142 179
143 180
144 180
145 181
146 182
147 183
148 183
149 184
150 185
151 186
152 186
153 187
154 188
155 189
156 189
157 190
158 191
159 192
160 192
161 193
162 194
163 194
164 195
165 196
166 197
167 197
168 198
169 199
170 199
171 200
172 201
173 202
174 202
175 203
176 204
177 204
178 205
179 206
180 206
181 207
182 208
183 208
184 209
185 210
186 211
187 211
188 212
189 213
190 213
191 214
192 215
193 215
194 216
195 217
196 217
197 218
198 219
199 219
200 220
201 221
202 221
203 222
204 223
205 223
206 224
207 225
208 225
209 226
210 226
211 227
212 228
213 228
214 229
215 230
216 230
217 231
218 232
219 232
220 233
221 234
222 234
223 235
224 235
225 236
226 237
227 237
228 238
229 239
230 239
231 240
232 240
233 241
234 242
235 242
236 243
237 244
238 244
239 245
240 245
241 246
242 247
243 247
244 248
245 248
246 249
247 250
248 250
249 251
250 251
251 252
252 253
253 253
254 254
255 255
